fft/fft64.vcd
$date
	Tue Jan 13 11:34:36 2015
$end
$version
	Icarus Verilog
$end
$timescale
	1s
$end
$scope module fft64sim $end
$var wire 11 ! _ai [10:0] $end
$var wire 11 " _ar [10:0] $end
$var wire 1 # _valid_a $end
$var wire 11 $ di [10:0] $end
$var wire 11 % dr [10:0] $end
$var wire 1 & valid_d $end
$var wire 1 ' valid_o $end
$var wire 11 ( xi [10:0] $end
$var wire 11 ) xr [10:0] $end
$var reg 1 * CLK $end
$var reg 1 + RST $end
$var reg 11 , ai [10:0] $end
$var reg 11 - ar [10:0] $end
$var integer 32 . i [31:0] $end
$var reg 1 / valid_a $end
$scope module fft64 $end
$var wire 1 0 CLK $end
$var wire 1 1 RST $end
$var wire 11 2 ai [10:0] $end
$var wire 11 3 ar [10:0] $end
$var wire 1 # valid_a $end
$var wire 1 4 valid_a_0 $end
$var wire 1 5 valid_a_1 $end
$var wire 1 6 valid_a_2 $end
$var wire 1 7 valid_a_3 $end
$var wire 1 ' valid_o $end
$var wire 1 8 valid_o_0 $end
$var wire 1 9 valid_o_1 $end
$var wire 1 : valid_o_2 $end
$var wire 1 ; valid_o_3 $end
$var wire 11 < xi [10:0] $end
$var wire 11 = xi_0 [10:0] $end
$var wire 11 > xi_1 [10:0] $end
$var wire 11 ? xi_2 [10:0] $end
$var wire 11 @ xi_3 [10:0] $end
$var wire 11 A xr [10:0] $end
$var wire 11 B xr_0 [10:0] $end
$var wire 11 C xr_1 [10:0] $end
$var wire 11 D xr_2 [10:0] $end
$var wire 11 E xr_3 [10:0] $end
$var reg 6 F count [5:0] $end
$var reg 2 G select [1:0] $end
$scope module execute0 $end
$var wire 1 0 CLK $end
$var wire 1 1 RST $end
$var wire 6 H a0 [5:0] $end
$var wire 6 I a1 [5:0] $end
$var wire 6 J a2 [5:0] $end
$var wire 6 K a3 [5:0] $end
$var wire 11 L ai [10:0] $end
$var wire 11 M ar [10:0] $end
$var wire 6 N b0 [5:0] $end
$var wire 6 O b1 [5:0] $end
$var wire 6 P b2 [5:0] $end
$var wire 6 Q b3 [5:0] $end
$var wire 6 R c0 [5:0] $end
$var wire 6 S c1 [5:0] $end
$var wire 6 T c2 [5:0] $end
$var wire 6 U c3 [5:0] $end
$var wire 6 V p0 [5:0] $end
$var wire 6 W p1 [5:0] $end
$var wire 6 X p2 [5:0] $end
$var wire 6 Y p3 [5:0] $end
$var wire 6 Z q0 [5:0] $end
$var wire 6 [ q1 [5:0] $end
$var wire 6 \ q2 [5:0] $end
$var wire 6 ] q3 [5:0] $end
$var wire 1 4 valid_a $end
$var reg 32 ^ count [31:0] $end
$var reg 1 _ valid_o $end
$var reg 1 ` working $end
$var reg 11 a xi [10:0] $end
$var reg 11 b xr [10:0] $end
$scope function b0_gen $end
$var reg 32 c b0_gen [31:0] $end
$var reg 32 d count [31:0] $end
$upscope $end
$scope function cos $end
$var reg 10 e cos [9:0] $end
$var reg 6 f in [5:0] $end
$upscope $end
$scope function q1_gen $end
$var reg 32 g count [31:0] $end
$var reg 32 h q1_gen [31:0] $end
$upscope $end
$scope function sin $end
$var reg 6 i in [5:0] $end
$var reg 10 j sin [9:0] $end
$upscope $end
$upscope $end
$scope module execute1 $end
$var wire 1 0 CLK $end
$var wire 1 1 RST $end
$var wire 6 k a0 [5:0] $end
$var wire 6 l a1 [5:0] $end
$var wire 6 m a2 [5:0] $end
$var wire 6 n a3 [5:0] $end
$var wire 11 o ai [10:0] $end
$var wire 11 p ar [10:0] $end
$var wire 6 q b0 [5:0] $end
$var wire 6 r b1 [5:0] $end
$var wire 6 s b2 [5:0] $end
$var wire 6 t b3 [5:0] $end
$var wire 6 u c0 [5:0] $end
$var wire 6 v c1 [5:0] $end
$var wire 6 w c2 [5:0] $end
$var wire 6 x c3 [5:0] $end
$var wire 6 y p0 [5:0] $end
$var wire 6 z p1 [5:0] $end
$var wire 6 { p2 [5:0] $end
$var wire 6 | p3 [5:0] $end
$var wire 6 } q0 [5:0] $end
$var wire 6 ~ q1 [5:0] $end
$var wire 6 !" q2 [5:0] $end
$var wire 6 "" q3 [5:0] $end
$var wire 1 5 valid_a $end
$var reg 32 #" count [31:0] $end
$var reg 1 $" valid_o $end
$var reg 1 %" working $end
$var reg 11 &" xi [10:0] $end
$var reg 11 '" xr [10:0] $end
$scope function b0_gen $end
$var reg 32 (" b0_gen [31:0] $end
$var reg 32 )" count [31:0] $end
$upscope $end
$scope function cos $end
$var reg 10 *" cos [9:0] $end
$var reg 6 +" in [5:0] $end
$upscope $end
$scope function q1_gen $end
$var reg 32 ," count [31:0] $end
$var reg 32 -" q1_gen [31:0] $end
$upscope $end
$scope function sin $end
$var reg 6 ." in [5:0] $end
$var reg 10 /" sin [9:0] $end
$upscope $end
$upscope $end
$scope module execute2 $end
$var wire 1 0 CLK $end
$var wire 1 1 RST $end
$var wire 6 0" a0 [5:0] $end
$var wire 6 1" a1 [5:0] $end
$var wire 6 2" a2 [5:0] $end
$var wire 6 3" a3 [5:0] $end
$var wire 11 4" ai [10:0] $end
$var wire 11 5" ar [10:0] $end
$var wire 6 6" b0 [5:0] $end
$var wire 6 7" b1 [5:0] $end
$var wire 6 8" b2 [5:0] $end
$var wire 6 9" b3 [5:0] $end
$var wire 6 :" c0 [5:0] $end
$var wire 6 ;" c1 [5:0] $end
$var wire 6 <" c2 [5:0] $end
$var wire 6 =" c3 [5:0] $end
$var wire 6 >" p0 [5:0] $end
$var wire 6 ?" p1 [5:0] $end
$var wire 6 @" p2 [5:0] $end
$var wire 6 A" p3 [5:0] $end
$var wire 6 B" q0 [5:0] $end
$var wire 6 C" q1 [5:0] $end
$var wire 6 D" q2 [5:0] $end
$var wire 6 E" q3 [5:0] $end
$var wire 1 6 valid_a $end
$var reg 32 F" count [31:0] $end
$var reg 1 G" valid_o $end
$var reg 1 H" working $end
$var reg 11 I" xi [10:0] $end
$var reg 11 J" xr [10:0] $end
$scope function b0_gen $end
$var reg 32 K" b0_gen [31:0] $end
$var reg 32 L" count [31:0] $end
$upscope $end
$scope function cos $end
$var reg 10 M" cos [9:0] $end
$var reg 6 N" in [5:0] $end
$upscope $end
$scope function q1_gen $end
$var reg 32 O" count [31:0] $end
$var reg 32 P" q1_gen [31:0] $end
$upscope $end
$scope function sin $end
$var reg 6 Q" in [5:0] $end
$var reg 10 R" sin [9:0] $end
$upscope $end
$upscope $end
$scope module execute3 $end
$var wire 1 0 CLK $end
$var wire 1 1 RST $end
$var wire 6 S" a0 [5:0] $end
$var wire 6 T" a1 [5:0] $end
$var wire 6 U" a2 [5:0] $end
$var wire 6 V" a3 [5:0] $end
$var wire 11 W" ai [10:0] $end
$var wire 11 X" ar [10:0] $end
$var wire 6 Y" b0 [5:0] $end
$var wire 6 Z" b1 [5:0] $end
$var wire 6 [" b2 [5:0] $end
$var wire 6 \" b3 [5:0] $end
$var wire 6 ]" c0 [5:0] $end
$var wire 6 ^" c1 [5:0] $end
$var wire 6 _" c2 [5:0] $end
$var wire 6 `" c3 [5:0] $end
$var wire 6 a" p0 [5:0] $end
$var wire 6 b" p1 [5:0] $end
$var wire 6 c" p2 [5:0] $end
$var wire 6 d" p3 [5:0] $end
$var wire 6 e" q0 [5:0] $end
$var wire 6 f" q1 [5:0] $end
$var wire 6 g" q2 [5:0] $end
$var wire 6 h" q3 [5:0] $end
$var wire 1 7 valid_a $end
$var reg 32 i" count [31:0] $end
$var reg 1 j" valid_o $end
$var reg 1 k" working $end
$var reg 11 l" xi [10:0] $end
$var reg 11 m" xr [10:0] $end
$scope function b0_gen $end
$var reg 32 n" b0_gen [31:0] $end
$var reg 32 o" count [31:0] $end
$upscope $end
$scope function cos $end
$var reg 10 p" cos [9:0] $end
$var reg 6 q" in [5:0] $end
$upscope $end
$scope function q1_gen $end
$var reg 32 r" count [31:0] $end
$var reg 32 s" q1_gen [31:0] $end
$upscope $end
$scope function sin $end
$var reg 6 t" in [5:0] $end
$var reg 10 u" sin [9:0] $end
$upscope $end
$upscope $end
$upscope $end
$scope module ifft64 $end
$var wire 1 0 CLK $end
$var wire 1 1 RST $end
$var wire 11 v" _ai [10:0] $end
$var wire 11 w" _ar [10:0] $end
$var wire 11 x" _xi [10:0] $end
$var wire 11 y" _xr [10:0] $end
$var wire 11 z" ai [10:0] $end
$var wire 11 {" ar [10:0] $end
$var wire 1 ' valid_a $end
$var wire 1 & valid_o $end
$var wire 11 |" xi [10:0] $end
$var wire 11 }" xr [10:0] $end
$scope module _fft64 $end
$var wire 1 0 CLK $end
$var wire 1 1 RST $end
$var wire 11 ~" ai [10:0] $end
$var wire 11 !# ar [10:0] $end
$var wire 1 ' valid_a $end
$var wire 1 "# valid_a_0 $end
$var wire 1 ## valid_a_1 $end
$var wire 1 $# valid_a_2 $end
$var wire 1 %# valid_a_3 $end
$var wire 1 & valid_o $end
$var wire 1 &# valid_o_0 $end
$var wire 1 '# valid_o_1 $end
$var wire 1 (# valid_o_2 $end
$var wire 1 )# valid_o_3 $end
$var wire 11 *# xi [10:0] $end
$var wire 11 +# xi_0 [10:0] $end
$var wire 11 ,# xi_1 [10:0] $end
$var wire 11 -# xi_2 [10:0] $end
$var wire 11 .# xi_3 [10:0] $end
$var wire 11 /# xr [10:0] $end
$var wire 11 0# xr_0 [10:0] $end
$var wire 11 1# xr_1 [10:0] $end
$var wire 11 2# xr_2 [10:0] $end
$var wire 11 3# xr_3 [10:0] $end
$var reg 6 4# count [5:0] $end
$var reg 2 5# select [1:0] $end
$scope module execute0 $end
$var wire 1 0 CLK $end
$var wire 1 1 RST $end
$var wire 6 6# a0 [5:0] $end
$var wire 6 7# a1 [5:0] $end
$var wire 6 8# a2 [5:0] $end
$var wire 6 9# a3 [5:0] $end
$var wire 11 :# ai [10:0] $end
$var wire 11 ;# ar [10:0] $end
$var wire 6 <# b0 [5:0] $end
$var wire 6 =# b1 [5:0] $end
$var wire 6 ># b2 [5:0] $end
$var wire 6 ?# b3 [5:0] $end
$var wire 6 @# c0 [5:0] $end
$var wire 6 A# c1 [5:0] $end
$var wire 6 B# c2 [5:0] $end
$var wire 6 C# c3 [5:0] $end
$var wire 6 D# p0 [5:0] $end
$var wire 6 E# p1 [5:0] $end
$var wire 6 F# p2 [5:0] $end
$var wire 6 G# p3 [5:0] $end
$var wire 6 H# q0 [5:0] $end
$var wire 6 I# q1 [5:0] $end
$var wire 6 J# q2 [5:0] $end
$var wire 6 K# q3 [5:0] $end
$var wire 1 "# valid_a $end
$var reg 32 L# count [31:0] $end
$var reg 1 M# valid_o $end
$var reg 1 N# working $end
$var reg 11 O# xi [10:0] $end
$var reg 11 P# xr [10:0] $end
$scope function b0_gen $end
$var reg 32 Q# b0_gen [31:0] $end
$var reg 32 R# count [31:0] $end
$upscope $end
$scope function cos $end
$var reg 10 S# cos [9:0] $end
$var reg 6 T# in [5:0] $end
$upscope $end
$scope function q1_gen $end
$var reg 32 U# count [31:0] $end
$var reg 32 V# q1_gen [31:0] $end
$upscope $end
$scope function sin $end
$var reg 6 W# in [5:0] $end
$var reg 10 X# sin [9:0] $end
$upscope $end
$upscope $end
$scope module execute1 $end
$var wire 1 0 CLK $end
$var wire 1 1 RST $end
$var wire 6 Y# a0 [5:0] $end
$var wire 6 Z# a1 [5:0] $end
$var wire 6 [# a2 [5:0] $end
$var wire 6 \# a3 [5:0] $end
$var wire 11 ]# ai [10:0] $end
$var wire 11 ^# ar [10:0] $end
$var wire 6 _# b0 [5:0] $end
$var wire 6 `# b1 [5:0] $end
$var wire 6 a# b2 [5:0] $end
$var wire 6 b# b3 [5:0] $end
$var wire 6 c# c0 [5:0] $end
$var wire 6 d# c1 [5:0] $end
$var wire 6 e# c2 [5:0] $end
$var wire 6 f# c3 [5:0] $end
$var wire 6 g# p0 [5:0] $end
$var wire 6 h# p1 [5:0] $end
$var wire 6 i# p2 [5:0] $end
$var wire 6 j# p3 [5:0] $end
$var wire 6 k# q0 [5:0] $end
$var wire 6 l# q1 [5:0] $end
$var wire 6 m# q2 [5:0] $end
$var wire 6 n# q3 [5:0] $end
$var wire 1 ## valid_a $end
$var reg 32 o# count [31:0] $end
$var reg 1 p# valid_o $end
$var reg 1 q# working $end
$var reg 11 r# xi [10:0] $end
$var reg 11 s# xr [10:0] $end
$scope function b0_gen $end
$var reg 32 t# b0_gen [31:0] $end
$var reg 32 u# count [31:0] $end
$upscope $end
$scope function cos $end
$var reg 10 v# cos [9:0] $end
$var reg 6 w# in [5:0] $end
$upscope $end
$scope function q1_gen $end
$var reg 32 x# count [31:0] $end
$var reg 32 y# q1_gen [31:0] $end
$upscope $end
$scope function sin $end
$var reg 6 z# in [5:0] $end
$var reg 10 {# sin [9:0] $end
$upscope $end
$upscope $end
$scope module execute2 $end
$var wire 1 0 CLK $end
$var wire 1 1 RST $end
$var wire 6 |# a0 [5:0] $end
$var wire 6 }# a1 [5:0] $end
$var wire 6 ~# a2 [5:0] $end
$var wire 6 !$ a3 [5:0] $end
$var wire 11 "$ ai [10:0] $end
$var wire 11 #$ ar [10:0] $end
$var wire 6 $$ b0 [5:0] $end
$var wire 6 %$ b1 [5:0] $end
$var wire 6 &$ b2 [5:0] $end
$var wire 6 '$ b3 [5:0] $end
$var wire 6 ($ c0 [5:0] $end
$var wire 6 )$ c1 [5:0] $end
$var wire 6 *$ c2 [5:0] $end
$var wire 6 +$ c3 [5:0] $end
$var wire 6 ,$ p0 [5:0] $end
$var wire 6 -$ p1 [5:0] $end
$var wire 6 .$ p2 [5:0] $end
$var wire 6 /$ p3 [5:0] $end
$var wire 6 0$ q0 [5:0] $end
$var wire 6 1$ q1 [5:0] $end
$var wire 6 2$ q2 [5:0] $end
$var wire 6 3$ q3 [5:0] $end
$var wire 1 $# valid_a $end
$var reg 32 4$ count [31:0] $end
$var reg 1 5$ valid_o $end
$var reg 1 6$ working $end
$var reg 11 7$ xi [10:0] $end
$var reg 11 8$ xr [10:0] $end
$scope function b0_gen $end
$var reg 32 9$ b0_gen [31:0] $end
$var reg 32 :$ count [31:0] $end
$upscope $end
$scope function cos $end
$var reg 10 ;$ cos [9:0] $end
$var reg 6 <$ in [5:0] $end
$upscope $end
$scope function q1_gen $end
$var reg 32 =$ count [31:0] $end
$var reg 32 >$ q1_gen [31:0] $end
$upscope $end
$scope function sin $end
$var reg 6 ?$ in [5:0] $end
$var reg 10 @$ sin [9:0] $end
$upscope $end
$upscope $end
$scope module execute3 $end
$var wire 1 0 CLK $end
$var wire 1 1 RST $end
$var wire 6 A$ a0 [5:0] $end
$var wire 6 B$ a1 [5:0] $end
$var wire 6 C$ a2 [5:0] $end
$var wire 6 D$ a3 [5:0] $end
$var wire 11 E$ ai [10:0] $end
$var wire 11 F$ ar [10:0] $end
$var wire 6 G$ b0 [5:0] $end
$var wire 6 H$ b1 [5:0] $end
$var wire 6 I$ b2 [5:0] $end
$var wire 6 J$ b3 [5:0] $end
$var wire 6 K$ c0 [5:0] $end
$var wire 6 L$ c1 [5:0] $end
$var wire 6 M$ c2 [5:0] $end
$var wire 6 N$ c3 [5:0] $end
$var wire 6 O$ p0 [5:0] $end
$var wire 6 P$ p1 [5:0] $end
$var wire 6 Q$ p2 [5:0] $end
$var wire 6 R$ p3 [5:0] $end
$var wire 6 S$ q0 [5:0] $end
$var wire 6 T$ q1 [5:0] $end
$var wire 6 U$ q2 [5:0] $end
$var wire 6 V$ q3 [5:0] $end
$var wire 1 %# valid_a $end
$var reg 32 W$ count [31:0] $end
$var reg 1 X$ valid_o $end
$var reg 1 Y$ working $end
$var reg 11 Z$ xi [10:0] $end
$var reg 11 [$ xr [10:0] $end
$scope function b0_gen $end
$var reg 32 \$ b0_gen [31:0] $end
$var reg 32 ]$ count [31:0] $end
$upscope $end
$scope function cos $end
$var reg 10 ^$ cos [9:0] $end
$var reg 6 _$ in [5:0] $end
$upscope $end
$scope function q1_gen $end
$var reg 32 `$ count [31:0] $end
$var reg 32 a$ q1_gen [31:0] $end
$upscope $end
$scope function sin $end
$var reg 6 b$ in [5:0] $end
$var reg 10 c$ sin [9:0] $end
$upscope $end
$upscope $end
$upscope $end
$upscope $end
$scope module input_register $end
$var wire 1 0 CLK $end
$var wire 11 d$ ai [10:0] $end
$var wire 11 e$ ar [10:0] $end
$var wire 1 f$ valid_a $end
$var reg 11 g$ _ai [10:0] $end
$var reg 11 h$ _ar [10:0] $end
$var reg 1 i$ _valid_a $end
$upscope $end
$upscope $end
$enddefinitions $end
#0
$dumpvars
0i$
bx h$
bx g$
0f$
bx e$
bx d$
bx c$
bx b$
bx a$
bx `$
bx _$
bx ^$
bx ]$
bx \$
bx [$
bx Z$
xY$
xX$
bx W$
bx V$
bx U$
bx T$
b0 S$
bx R$
bx Q$
bx P$
b0 O$
bx N$
bx M$
bx L$
bx K$
bx J$
bx I$
bx H$
bx G$
bx F$
bx E$
bx D$
bx C$
bx B$
bx A$
bx @$
bx ?$
bx >$
bx =$
bx <$
bx ;$
bx :$
bx 9$
bx 8$
bx 7$
x6$
x5$
bx 4$
bx 3$
bx 2$
bx 1$
b0 0$
bx /$
bx .$
bx -$
b0 ,$
bx +$
bx *$
bx )$
bx ($
bx '$
bx &$
bx %$
bx $$
bx #$
bx "$
bx !$
bx ~#
bx }#
bx |#
bx {#
bx z#
bx y#
bx x#
bx w#
bx v#
bx u#
bx t#
bx s#
bx r#
xq#
xp#
bx o#
bx n#
bx m#
bx l#
b0 k#
bx j#
bx i#
bx h#
b0 g#
bx f#
bx e#
bx d#
bx c#
bx b#
bx a#
bx `#
bx _#
bx ^#
bx ]#
bx \#
bx [#
bx Z#
bx Y#
bx X#
bx W#
bx V#
bx U#
bx T#
bx S#
bx R#
bx Q#
bx P#
bx O#
xN#
xM#
bx L#
bx K#
bx J#
bx I#
b0 H#
bx G#
bx F#
bx E#
b0 D#
bx C#
bx B#
bx A#
bx @#
bx ?#
bx >#
bx =#
bx <#
bx ;#
bx :#
bx 9#
bx 8#
bx 7#
bx 6#
bx 5#
bx 4#
bx 3#
bx 2#
bx 1#
bx 0#
bx /#
bx .#
bx -#
bx ,#
bx +#
bx *#
x)#
x(#
x'#
x&#
x%#
x$#
x##
x"#
bx !#
bx ~"
bx }"
bx |"
bx {"
bx z"
bx y"
bx x"
bx w"
bx v"
bx u"
bx t"
bx s"
bx r"
bx q"
bx p"
bx o"
bx n"
bx m"
bx l"
xk"
xj"
bx i"
bx h"
bx g"
bx f"
b0 e"
bx d"
bx c"
bx b"
b0 a"
bx `"
bx _"
bx ^"
bx ]"
bx \"
bx ["
bx Z"
bx Y"
bx X"
bx W"
bx V"
bx U"
bx T"
bx S"
bx R"
bx Q"
bx P"
bx O"
bx N"
bx M"
bx L"
bx K"
bx J"
bx I"
xH"
xG"
bx F"
bx E"
bx D"
bx C"
b0 B"
bx A"
bx @"
bx ?"
b0 >"
bx ="
bx <"
bx ;"
bx :"
bx 9"
bx 8"
bx 7"
bx 6"
bx 5"
bx 4"
bx 3"
bx 2"
bx 1"
bx 0"
bx /"
bx ."
bx -"
bx ,"
bx +"
bx *"
bx )"
bx ("
bx '"
bx &"
x%"
x$"
bx #"
bx ""
bx !"
bx ~
b0 }
bx |
bx {
bx z
b0 y
bx x
bx w
bx v
bx u
bx t
bx s
bx r
bx q
bx p
bx o
bx n
bx m
bx l
bx k
bx j
bx i
bx h
bx g
bx f
bx e
bx d
bx c
bx b
bx a
x`
x_
bx ^
bx ]
bx \
bx [
b0 Z
bx Y
bx X
bx W
b0 V
bx U
bx T
bx S
bx R
bx Q
bx P
bx O
bx N
bx M
bx L
bx K
bx J
bx I
bx H
bx G
bx F
bx E
bx D
bx C
bx B
bx A
bx @
bx ?
bx >
bx =
bx <
x;
x:
x9
x8
07
06
05
04
bx 3
bx 2
11
10
0/
bx .
bx -
bx ,
1+
1*
bx )
bx (
x'
x&
bx %
bx $
0#
bx "
bx !
$end
#5
0*
00
#10
0"#
0##
0$#
0%#
b10000 B$
b100000 C$
b110000 D$
b1 L$
b10 M$
b11 N$
b10000 }#
b100000 ~#
b110000 !$
b1 )$
b10 *$
b11 +$
b10000 Z#
b100000 [#
b110000 \#
b1 d#
b10 e#
b11 f#
b10000 7#
b100000 8#
b110000 9#
b1 A#
b10 B#
b11 C#
b10000 T"
b100000 U"
b110000 V"
b1 ^"
b10 _"
b11 `"
b10000 1"
b100000 2"
b110000 3"
b1 ;"
b10 <"
b11 ="
b10000 l
b100000 m
b110000 n
b1 v
b10 w
b11 x
b10000 I
b100000 J
b110000 K
b1 S
b10 T
b11 U
0&
b0 Q$
b0 R$
b0 A$
b0 P$
b0 ]$
b0 `$
b0 K$
b0 .$
b0 /$
b0 |#
b0 -$
b0 :$
b0 =$
b0 ($
b0 i#
b0 j#
b0 Y#
b0 h#
b0 u#
b0 x#
b0 c#
b0 F#
b0 G#
b0 6#
b0 E#
b0 R#
b0 U#
b0 @#
0'
b0 c"
b0 d"
b0 S"
b0 b"
b0 o"
b0 r"
b0 ]"
b0 @"
b0 A"
b0 0"
b0 ?"
b0 L"
b0 O"
b0 :"
b0 {
b0 |
b0 k
b0 z
b0 )"
b0 ,"
b0 u
b0 X
b0 Y
b0 H
b0 W
b0 d
b0 g
b0 R
b0 4#
b0 5#
0X$
0)#
b0 W$
0Y$
05$
0(#
b0 4$
06$
0p#
0'#
b0 o#
0q#
0M#
0&#
b0 L#
0N#
b0 F
b0 G
0j"
0;
b0 i"
0k"
0G"
0:
b0 F"
0H"
0$"
09
b0 #"
0%"
0_
08
b0 ^
0`
1*
10
0+
01
#15
0*
00
#20
1*
10
1+
11
b0 .
#25
0*
00
#30
14
b1111 g$
b1111 !
b1111 2
b1111 L
b1111 o
b1111 4"
b1111 W"
b101 h$
b101 "
b101 3
b101 M
b101 p
b101 5"
b101 X"
1i$
1#
1*
10
b1111 ,
b1111 d$
b101 -
b101 e$
1/
1f$
b1 .
#35
0*
00
#40
b10001 I
b100001 J
b110001 K
b101 S
b110 T
b111 U
b10 X
b11 Y
b1 H
b1 W
b1 d
b1 g
b100 R
b11 g$
b11 !
b11 2
b11 L
b11 o
b11 4"
b11 W"
b1 h$
b1 "
b1 3
b1 M
b1 p
b1 5"
b1 X"
b1 ^
1`
b1 F
1*
10
b11 ,
b11 d$
b1 -
b1 e$
b10 .
#45
0*
00
#50
b10010 I
b100010 J
b110010 K
b1001 S
b1010 T
b1011 U
b100 X
b110 Y
b10 H
b10 W
b10 d
b10 g
b1000 R
b11111110100 h$
b11111110100 "
b11111110100 3
b11111110100 M
b11111110100 p
b11111110100 5"
b11111110100 X"
b10 F
b10 ^
1*
10
b11111110100 -
b11111110100 e$
b11 .
#55
0*
00
#60
b10011 I
b100011 J
b110011 K
b1101 S
b1110 T
b1111 U
b110 X
b1001 Y
b11 H
b11 W
b11 d
b11 g
b1100 R
b1011 g$
b1011 !
b1011 2
b1011 L
b1011 o
b1011 4"
b1011 W"
b11111111001 h$
b11111111001 "
b11111111001 3
b11111111001 M
b11111111001 p
b11111111001 5"
b11111111001 X"
b11 ^
b11 F
1*
10
b1011 ,
b1011 d$
b11111111001 -
b11111111001 e$
b100 .
#65
0*
00
#70
b10100 I
b100100 J
b110100 K
b10001 S
b10010 T
b10011 U
b1000 X
b1100 Y
b100 H
b100 W
b100 d
b100 g
b10000 R
b1 h$
b1 "
b1 3
b1 M
b1 p
b1 5"
b1 X"
b100 F
b100 ^
1*
10
b1 -
b1 e$
b101 .
#75
0*
00
#80
b10101 I
b100101 J
b110101 K
b10101 S
b10110 T
b10111 U
b1010 X
b1111 Y
b101 H
b101 W
b101 d
b101 g
b10100 R
b111 g$
b111 !
b111 2
b111 L
b111 o
b111 4"
b111 W"
b1100 h$
b1100 "
b1100 3
b1100 M
b1100 p
b1100 5"
b1100 X"
b101 ^
b101 F
1*
10
b111 ,
b111 d$
b1100 -
b1100 e$
b110 .
#85
0*
00
#90
b10110 I
b100110 J
b110110 K
b11001 S
b11010 T
b11011 U
b1100 X
b10010 Y
b110 H
b110 W
b110 d
b110 g
b11000 R
b101 g$
b101 !
b101 2
b101 L
b101 o
b101 4"
b101 W"
b11111110011 h$
b11111110011 "
b11111110011 3
b11111110011 M
b11111110011 p
b11111110011 5"
b11111110011 X"
b110 F
b110 ^
1*
10
b101 ,
b101 d$
b11111110011 -
b11111110011 e$
b111 .
#95
0*
00
#100
b10111 I
b100111 J
b110111 K
b11101 S
b11110 T
b11111 U
b1110 X
b10101 Y
b111 H
b111 W
b111 d
b111 g
b11100 R
b1110 g$
b1110 !
b1110 2
b1110 L
b1110 o
b1110 4"
b1110 W"
b11111111000 h$
b11111111000 "
b11111111000 3
b11111111000 M
b11111111000 p
b11111111000 5"
b11111111000 X"
b111 ^
b111 F
1*
10
b1110 ,
b1110 d$
b11111111000 -
b11111111000 e$
b1000 .
#105
0*
00
#110
b11000 I
b101000 J
b111000 K
b100001 S
b100010 T
b100011 U
b10000 X
b11000 Y
b1000 H
b1000 W
b1000 d
b1000 g
b100000 R
b100 g$
b100 !
b100 2
b100 L
b100 o
b100 4"
b100 W"
b1101 h$
b1101 "
b1101 3
b1101 M
b1101 p
b1101 5"
b1101 X"
b1000 F
b1000 ^
1*
10
b100 ,
b100 d$
b1101 -
b1101 e$
b1001 .
#115
0*
00
#120
b11001 I
b101001 J
b111001 K
b100101 S
b100110 T
b100111 U
b10010 X
b11011 Y
b1001 H
b1001 W
b1001 d
b1001 g
b100100 R
b1 g$
b1 !
b1 2
b1 L
b1 o
b1 4"
b1 W"
b11111111000 h$
b11111111000 "
b11111111000 3
b11111111000 M
b11111111000 p
b11111111000 5"
b11111111000 X"
b1001 ^
b1001 F
1*
10
b1 ,
b1 d$
b11111111000 -
b11111111000 e$
b1010 .
#125
0*
00
#130
b11010 I
b101010 J
b111010 K
b101001 S
b101010 T
b101011 U
b10100 X
b11110 Y
b1010 H
b1010 W
b1010 d
b1010 g
b101000 R
b101 g$
b101 !
b101 2
b101 L
b101 o
b101 4"
b101 W"
b100 h$
b100 "
b100 3
b100 M
b100 p
b100 5"
b100 X"
b1010 F
b1010 ^
1*
10
b101 ,
b101 d$
b100 -
b100 e$
b1011 .
#135
0*
00
#140
b11011 I
b101011 J
b111011 K
b101101 S
b101110 T
b101111 U
b10110 X
b100001 Y
b1011 H
b1011 W
b1011 d
b1011 g
b101100 R
b1011 g$
b1011 !
b1011 2
b1011 L
b1011 o
b1011 4"
b1011 W"
b1 h$
b1 "
b1 3
b1 M
b1 p
b1 5"
b1 X"
b1011 ^
b1011 F
1*
10
b1011 ,
b1011 d$
b1 -
b1 e$
b1100 .
#145
0*
00
#150
b11100 I
b101100 J
b111100 K
b110001 S
b110010 T
b110011 U
b11000 X
b100100 Y
b1100 H
b1100 W
b1100 d
b1100 g
b110000 R
b10 g$
b10 !
b10 2
b10 L
b10 o
b10 4"
b10 W"
b11111111010 h$
b11111111010 "
b11111111010 3
b11111111010 M
b11111111010 p
b11111111010 5"
b11111111010 X"
b1100 F
b1100 ^
1*
10
b10 ,
b10 d$
b11111111010 -
b11111111010 e$
b1101 .
#155
0*
00
#160
b11101 I
b101101 J
b111101 K
b110101 S
b110110 T
b110111 U
b11010 X
b100111 Y
b1101 H
b1101 W
b1101 d
b1101 g
b110100 R
b1010 g$
b1010 !
b1010 2
b1010 L
b1010 o
b1010 4"
b1010 W"
b11111110110 h$
b11111110110 "
b11111110110 3
b11111110110 M
b11111110110 p
b11111110110 5"
b11111110110 X"
b1101 ^
b1101 F
1*
10
b1010 ,
b1010 d$
b11111110110 -
b11111110110 e$
b1110 .
#165
0*
00
#170
b11110 I
b101110 J
b111110 K
b111001 S
b111010 T
b111011 U
b11100 X
b101010 Y
b1110 H
b1110 W
b1110 d
b1110 g
b111000 R
b110 g$
b110 !
b110 2
b110 L
b110 o
b110 4"
b110 W"
b0 h$
b0 "
b0 3
b0 M
b0 p
b0 5"
b0 X"
b1110 F
b1110 ^
1*
10
b110 ,
b110 d$
b0 -
b0 e$
b1111 .
#175
0*
00
#180
b11111 I
b101111 J
b111111 K
b111101 S
b111110 T
b111111 U
b11110 X
b101101 Y
b1111 H
b1111 W
b1111 d
b1111 g
b111100 R
b100 g$
b100 !
b100 2
b100 L
b100 o
b100 4"
b100 W"
b11111111100 h$
b11111111100 "
b11111111100 3
b11111111100 M
b11111111100 p
b11111111100 5"
b11111111100 X"
b1111 ^
b1111 F
1*
10
b100 ,
b100 d$
b11111111100 -
b11111111100 e$
b10000 .
#185
0*
00
#190
b100000 I
b110000 J
b0 K
b1 S
b10 T
b11 U
b100000 X
b110000 Y
b10000 H
b10000 W
b10000 d
b10000 g
b0 R
b111 g$
b111 !
b111 2
b111 L
b111 o
b111 4"
b111 W"
b11111110111 h$
b11111110111 "
b11111110111 3
b11111110111 M
b11111110111 p
b11111110111 5"
b11111110111 X"
b10000 F
b10000 ^
1*
10
b111 ,
b111 d$
b11111110111 -
b11111110111 e$
b10001 .
#195
0*
00
#200
b100001 I
b110001 J
b1 K
b101 S
b110 T
b111 U
b100010 X
b110011 Y
b10001 H
b10001 W
b10001 d
b10001 g
b100 R
b11 g$
b11 !
b11 2
b11 L
b11 o
b11 4"
b11 W"
b10001 ^
b10001 F
1*
10
b11 ,
b11 d$
b10010 .
#205
0*
00
#210
b100010 I
b110010 J
b10 K
b1001 S
b1010 T
b1011 U
b100100 X
b110110 Y
b10010 H
b10010 W
b10010 d
b10010 g
b1000 R
b1100 g$
b1100 !
b1100 2
b1100 L
b1100 o
b1100 4"
b1100 W"
b11111111000 h$
b11111111000 "
b11111111000 3
b11111111000 M
b11111111000 p
b11111111000 5"
b11111111000 X"
b10010 F
b10010 ^
1*
10
b1100 ,
b1100 d$
b11111111000 -
b11111111000 e$
b10011 .
#215
0*
00
